type,DrugBank ID,DrugBank Name,SMILE
small molecule,DB00225,Gadodiamide,O=C1[O-][Gd+3]234567[O]=C(C[N]2(CC[N]3(CC([O-]4)=O)CC[N]5(CC(=[O]6)NC)CC(=O)[O-]7)C1)NC
small molecule,DB00515,Cisplatin,[H][N]([H])([H])[Pt](Cl)(Cl)[N]([H])([H])[H]
small molecule,DB00526,Oxaliplatin,[H][N]1([H])[C@@H]2CCCC[C@H]2[N]([H])([H])[Pt]11OC(=O)C(=O)O1
small molecule,DB00958,Carboplatin,[H][N]([H])([H])[Pt]1(OC(=O)C2(CCC2)C(=O)O1)[N]([H])([H])[H]
small molecule,DB01929,"5-Chloryl-2,4,6-Quinazolinetriamine",NC1=C(C2=C(N)N=C(N)N=C2C=C1)[Cl](=O)=O
small molecule,DB01999,"5,10,15,20-Tetrakis(4-Sulpfonatophenyl)-21h,23h-Porphine",OS(O)(O)C1=CC=C(C=C1)C-1=C2\C=CC(=N2)\C(=C2/N\C(\C=C2)=C(/C2=N/C(/C=C2)=C(\C2=CC=C\-1N2)C1=CC=C(C=C1)S(O)(O)O)C1=CC=C(C=C1)S([O-])([O-])[O-])\C1=CC=C(C=C1)S(O)(O)[O-]
small molecule,DB02188,N-Methylmesoporphyrin Containing Copper,CCC1=C2C=C3N4C(=CC5=[N+]6C(=CC7=[N]8(C)C(=CC(N2[Cu-]468)=C1C)C(CC)=C7C)C(C)=C5CCC(O)=O)C(CCC(O)=O)=C3C
small molecule,DB02667,Factor IIIm,COC1=CC=C2N(C=NC2=C1)[C@H]1O[C@H](CO)[C@@H](O[P@]([OH-])(=O)O[C@H](C)CNC(=O)CC[C@]2(C)[C@@H](CC(N)=O)C3=[N+]4C2=C(C)C2=[N+]5C(=CC6=[N+]7C(=C(C)C8=[N+]([C@]3(C)[C@@](C)(CC(N)=O)[C@@H]8CCC(N)=O)[Co]457)[C@@](C)(CC(N)=O)[C@@H]6CCC(N)=O)C(C)(C)[C@@H]2CCC(N)=O)[C@H]1O
small molecule,DB03436,Gallichrome,CC1=[O][Ga]2345ON1CCC[C@H]1NC(=O)CNC(=O)[C@H](CO)NC(=O)CNC(=O)[C@H](CCCN(O2)C(C)=[O]3)NC(=O)C(CCCN(O4)C(C)=[O]5)NC1=O
small molecule,DB03492,"lambda-bis(2,2'-bipyridine)imidazole osmium (II)",C1=CN(C=N1)[Os++]123[N]4=CC=CC=C4C4=[N]1C=CC=C4.C1=CC(C4=CC=CC=[N]24)=[N]3C=C1
small molecule,DB03934,Protoporphyrin Ix Containing Zn,CC1=C(CCC(O)=O)C2=CC3=[N]4C(=CC5=C(C)C(C=C)=C6C=C7C(C)=C(C=C)C8=[N]7[Zn]4(N2C1=C8)N56)C(C)=C3CCC(O)=O
small molecule,DB04100,"(1,10 Phenanthroline)-(Tri-Carbon Monoxide) Rhenium (I)",[O]#C[Re+]1(C#[O])(C#[O])[N]2=CC=CC3=C2C2=C(C=CC=[N]12)C=C3
small molecule,DB04156,Aspartate Beryllium Trifluoride,N[C@@H](C[C@H](O)O[Be](F)(F)F)C(O)=O
small molecule,DB04231,Tetra(Imidazole)Diaquacopper (I),[OH2+][Cu-4]([OH2+])([N]1=CNC=C1)([N+]1=CNC=C1)([N+]1=CNC=C1)[N+]1=CNC=C1
small molecule,DB04444,Tetrafluoroaluminate Ion,F[Al](F)(F)[F-]
small molecule,DB08276,trifluoro-[hydroxy-[hydroxy-[2-(N-methyl-2-nitro-anilino)ethoxy]phosphoryl]oxy-phosphoryl]oxy-beryllium(1-),CN(CCO[P@](O)(=O)O[P@@](O)(=O)O[Be-](F)(F)F)C1=CC=CC=C1[N+]([O-])=O
small molecule,DB09385,Cyanocobalamin Co-57,[C@@H]1(C2[N-]3C4=C(C5=[N]6C(C([C@@H]5CCC(N)=O)(C)C)=CC5=[N]7C(=C(C8=[N]([C@@]2([C@@]([C@@H]8CCC(N)=O)(C)CC(N)=O)C)[57Co+3]367([N]2=CN(C3=C2C=C(C(C)=C3)C)[C@H]2O[C@H](CO)[C@@H](OP([O-])(=O)O[C@H](C)CNC(=O)CC[C@]14C)[C@H]2O)[CH-]#N)C)[C@@]([C@@H]5CCC(N)=O)(C)CC(N)=O)C)CC(N)=O
small molecule,DB11630,Temoporfin,OC1=CC=CC(=C1)C-1=C2\CCC(=N2)\C(=C2/N\C(\C=C2)=C(/C2=N/C(/C=C2)=C(\C2=CC=C\-1N2)C1=CC(O)=CC=C1)C1=CC(O)=CC=C1)\C1=CC(O)=CC=C1
small molecule,DB13145,Nedaplatin,[H][N]([H])([H])[Pt]1(OCC(=O)O1)[N]([H])([H])[H]
small molecule,DB14198,Quaternium-15,[ClH-].Cl\C=C\C[N+]12CN3CN(CN(C3)C1)C2
small molecule,DB14497,Calcium magnesium potassium carbonate chloride hydroxide,[OH-].[OH-].[OH-].[Mg++].[Cl-].[K++].[K++].[Ca++].[O-]C([O-])=O
